{
    "KPlugin": {
        "Authors": [
            {
                "Name": "Andreas Pakulat",
                "Name[ar]": "Andreas Pakulat",
                "Name[az]": "Andreas Pakulat",
                "Name[ca@valencia]": "Andreas Pakulat",
                "Name[ca]": "Andreas Pakulat",
                "Name[cs]": "Andreas Pakulat",
                "Name[de]": "Andreas Pakulat",
                "Name[el]": "Andreas Pakulat",
                "Name[en_GB]": "Andreas Pakulat",
                "Name[eo]": "Andreas Pakulat",
                "Name[es]": "Andreas Pakulat",
                "Name[et]": "Andreas Pakulat",
                "Name[eu]": "Andreas Pakulat",
                "Name[fi]": "Andreas Pakulat",
                "Name[fr]": "Andreas Pakulat",
                "Name[gl]": "Andreas Pakulat",
                "Name[it]": "Andreas Pakulat",
                "Name[ka]": "ანდრეას პაკულატი",
                "Name[ko]": "Andreas Pakulat",
                "Name[nl]": "Andreas Pakulat",
                "Name[nn]": "Andreas Pakulat",
                "Name[pl]": "Andreas Pakulat",
                "Name[pt]": "Andreas Pakulat",
                "Name[pt_BR]": "Andreas Pakulat",
                "Name[ru]": "Andreas Pakulat",
                "Name[sk]": "Andreas Pakulat",
                "Name[sl]": "Andreas Pakulat",
                "Name[sv]": "Andreas Pakulat",
                "Name[tr]": "Andreas Pakulat",
                "Name[uk]": "Andreas Pakulat",
                "Name[x-test]": "xxAndreas Pakulatxx",
                "Name[zh_CN]": "Andreas Pakulat"
            }
        ],
        "Category": "Core",
        "Description": "This plugin allows one to open files with associated external applications.",
        "Description[az]": "Bu qoşma, xarici tətbiqlər ilə əlaqəli faylları açmağa imkan verir.",
        "Description[ca@valencia]": "Este connector permet obrir fitxers amb les aplicacions externes associades.",
        "Description[ca]": "Aquest connector permet obrir fitxers amb les aplicacions externes associades.",
        "Description[cs]": "Tento modul umožňuje otevření souborů přiřazenými externími aplikacemi.",
        "Description[de]": "Mit diesem Modul können Dateien mit ihnen zugewiesenen externen Anwendungen gestartet werden.",
        "Description[el]": "Αυτό το πρόσθετο επιτρέπει το άνοιγμα αρχείων με σχετικές εξωτερικές εφαρμογές",
        "Description[en_GB]": "This plugin allows one to open files with associated external applications.",
        "Description[eo]": "Ĉi tiu kromaĵo permesas malfermi dosierojn kun rilataj eksteraj aplikoj.",
        "Description[es]": "Este complemento permite abrir archivos con las aplicaciones externas asociadas.",
        "Description[et]": "See plugin võimaldab avada väliste rakendustega seostatud faile.",
        "Description[eu]": "Plugin honek fitxategiak elkartutako kanpoko aplikazioekin irekitzen uzten du.",
        "Description[fr]": "Ce module permet d'ouvrir des fichiers en association avec des applications externes.",
        "Description[gl]": "Este complemento permítelle abrir ficheiros coas aplicacións externas asociadas.",
        "Description[it]": "Questa estensione permette di aprire i file con le relative applicazioni esterne.",
        "Description[ko]": "이 플러그인은 외부 프로그램으로 파일을 열 수 있도록 합니다.",
        "Description[nl]": "Deze plugin biedt u het openen van bestanden met geassocieerde externe toepassingen.",
        "Description[pl]": "Otwiera pliki w zewnętrznych programach.",
        "Description[pt]": "Este 'plugin' permite abrir os ficheiros com as aplicações externas associadas.",
        "Description[pt_BR]": "Este plugin permite abrir os arquivos com os aplicativos externos associados.",
        "Description[ru]": "Это расширение позволяет открывать файлы в связанном внешнем приложении",
        "Description[sk]": "Tento plugin umožňuje otvoriť súbory s asociovanými externými aplikáciami.",
        "Description[sl]": "Vstavek omogoča odpiranje datotek v povezanih zunanjih programih.",
        "Description[sv]": "Insticksprogrammet tillåter att öppna filer med tillhörande externa program.",
        "Description[tr]": "Bu eklenti, ilişkilendirilmiş dış uygulamalar ile dosyalar açmayı sağlar.",
        "Description[uk]": "За допомогою цього додатка ви зможете відкривати файли у пов’язаній з ними зовнішній програмі.",
        "Description[x-test]": "xxThis plugin allows one to open files with associated external applications.xx",
        "Description[zh_CN]": "此插件允许使用关联的外部应用程序打开文件。",
        "Icon": "document-open",
        "Id": "kdevopenwith",
        "License": "GPL",
        "Name": "Open With",
        "Name[ar]": "افتح بِـ",
        "Name[az]": "Bununla açın",
        "Name[bg]": "Отваряне с",
        "Name[bs]": "Otvori pomoću",
        "Name[ca@valencia]": "Obri amb",
        "Name[ca]": "Obre amb",
        "Name[cs]": "Otevřít pomocí",
        "Name[da]": "Åbn med",
        "Name[de]": "Öffnen mit",
        "Name[el]": "Άνοιγμα με",
        "Name[en_GB]": "Open With",
        "Name[eo]": "Malfermi Per",
        "Name[es]": "Abrir con",
        "Name[et]": "Avamine rakendusega",
        "Name[eu]": "Ireki honekin",
        "Name[fi]": "Avaa ohjelmalla",
        "Name[fr]": "Ouvrir avec",
        "Name[gl]": "Abrir con",
        "Name[hu]": "Megnyitás ezzel",
        "Name[it]": "Apri con",
        "Name[ka]": "გამხსნელი პროგრამა",
        "Name[kk]": "Мынамен ашу",
        "Name[ko]": "다음으로 열기",
        "Name[mr]": "यामध्ये उघडा",
        "Name[nb]": "Åpne med",
        "Name[nds]": "Opmaken mit",
        "Name[nl]": "Openen met",
        "Name[pl]": "Otwórz w",
        "Name[pt]": "Abrir Com",
        "Name[pt_BR]": "Abrir com",
        "Name[ru]": "Открыть с помощью",
        "Name[sk]": "Otvoriť s",
        "Name[sl]": "Odpri z",
        "Name[sv]": "Öppna med",
        "Name[tr]": "Birlikte Aç",
        "Name[ug]": "بۇنىڭدا ئېچىش",
        "Name[uk]": "Відкриття у зовнішніх програмах",
        "Name[x-test]": "xxOpen Withxx",
        "Name[zh_CN]": "打开方式",
        "Name[zh_TW]": "開啟方式"
    },
    "X-KDevelop-Category": "Global",
    "X-KDevelop-Interfaces": [
        "org.kdevelop.IOpenWith"
    ],
    "X-KDevelop-Mode": "GUI"
}
